{
  "project_info": {
    "project_number": "801030853579",
    "firebase_url": "https://nzse-praktikum.firebaseio.com",
    "project_id": "nzse-praktikum",
    "storage_bucket": "nzse-praktikum.appspot.com"
  },
  "client": [
    {
      "client_info": {
        "mobilesdk_app_id": "1:801030853579:android:c1142042ac4175210f1c4e",
        "android_client_info": {
          "package_name": "com.example.parkplatz"
        }
      },
      "oauth_client": [
        {
          "client_id": "801030853579-l1ulr7jl6a1ohikebphl1qe81jbnbfev.apps.googleusercontent.com",
          "client_type": 1,
          "android_info": {
            "package_name": "com.example.parkplatz",
            "certificate_hash": "91827b1dc39204f73f1642afd0a00f99aa3d42df"
          }
        },
        {
          "client_id": "801030853579-9u7ggre8aedpnron8klro4ud2hcs101j.apps.googleusercontent.com",
          "client_type": 3
        }
      ],
      "api_key": [
        {
          "current_key": "AIzaSyApu8mATUh4VCJy4MH8Vd1d2d8xiCB4D28"
        }
      ],
      "services": {
        "appinvite_service": {
          "other_platform_oauth_client": [
            {
              "client_id": "801030853579-9u7ggre8aedpnron8klro4ud2hcs101j.apps.googleusercontent.com",
              "client_type": 3
            }
          ]
        }
      }
    }
  ],
  "configuration_version": "1"
}